%YAML 1.1
%TAG !u! tag:unity3d.com,2011:
--- !u!65 &1806516032726540064
BoxCollider:
  m_ObjectHideFlags: 0
  m_CorrespondingSourceObject: {fileID: 0}
  m_PrefabInstance: {fileID: 0}
  m_PrefabAsset: {fileID: 0}
  m_GameObject: {fileID: 308260410703809134}
  m_Material: {fileID: 0}
  m_IsTrigger: 1
  m_Enabled: 1
  serializedVersion: 2
  m_Size: {x: 0.06, y: 0.083, z: 0.175}
  m_Center: {x: 0, y: 0.44, z: -0.0025}
--- !u!114 &8870345508466141260
MonoBehaviour:
  m_ObjectHideFlags: 0
  m_CorrespondingSourceObject: {fileID: 0}
  m_PrefabInstance: {fileID: 0}
  m_PrefabAsset: {fileID: 0}
  m_GameObject: {fileID: 308260410703809134}
  m_Enabled: 1
  m_EditorHideFlags: 0
  m_Script: {fileID: 11500000, guid: 11da421ac2c5fb8439e13294e42f38a4, type: 3}
  m_Name: 
  m_EditorClassIdentifier: 
  fastThreshold: 1
--- !u!54 &563097452765794128
Rigidbody:
  m_ObjectHideFlags: 0
  m_CorrespondingSourceObject: {fileID: 0}
  m_PrefabInstance: {fileID: 0}
  m_PrefabAsset: {fileID: 0}
  m_GameObject: {fileID: 308260410703809134}
  serializedVersion: 2
  m_Mass: 1
  m_Drag: 0
  m_AngularDrag: 0.05
  m_UseGravity: 0
  m_IsKinematic: 0
  m_Interpolate: 0
  m_Constraints: 0
  m_CollisionDetection: 0
--- !u!1001 &2840239246963816186
PrefabInstance:
  m_ObjectHideFlags: 0
  serializedVersion: 2
  m_Modification:
    m_TransformParent: {fileID: 0}
    m_Modifications:
    - target: {fileID: -927199367670048503, guid: dce41f0c800859c4e9a589cc20998ff9,
        type: 3}
      propertyPath: m_Name
      value: hammerTextPrefab
      objectReference: {fileID: 0}
    - target: {fileID: 2534866581884222612, guid: dce41f0c800859c4e9a589cc20998ff9,
        type: 3}
      propertyPath: m_TagString
      value: Hammer
      objectReference: {fileID: 0}
    - target: {fileID: -4216859302048453862, guid: dce41f0c800859c4e9a589cc20998ff9,
        type: 3}
      propertyPath: m_LocalPosition.x
      value: 0
      objectReference: {fileID: 0}
    - target: {fileID: -4216859302048453862, guid: dce41f0c800859c4e9a589cc20998ff9,
        type: 3}
      propertyPath: m_LocalPosition.y
      value: 0
      objectReference: {fileID: 0}
    - target: {fileID: -4216859302048453862, guid: dce41f0c800859c4e9a589cc20998ff9,
        type: 3}
      propertyPath: m_LocalPosition.z
      value: 0
      objectReference: {fileID: 0}
    - target: {fileID: -4216859302048453862, guid: dce41f0c800859c4e9a589cc20998ff9,
        type: 3}
      propertyPath: m_LocalRotation.x
      value: 0
      objectReference: {fileID: 0}
    - target: {fileID: -4216859302048453862, guid: dce41f0c800859c4e9a589cc20998ff9,
        type: 3}
      propertyPath: m_LocalRotation.y
      value: -0
      objectReference: {fileID: 0}
    - target: {fileID: -4216859302048453862, guid: dce41f0c800859c4e9a589cc20998ff9,
        type: 3}
      propertyPath: m_LocalRotation.z
      value: -0
      objectReference: {fileID: 0}
    - target: {fileID: -4216859302048453862, guid: dce41f0c800859c4e9a589cc20998ff9,
        type: 3}
      propertyPath: m_LocalRotation.w
      value: 1
      objectReference: {fileID: 0}
    - target: {fileID: -4216859302048453862, guid: dce41f0c800859c4e9a589cc20998ff9,
        type: 3}
      propertyPath: m_RootOrder
      value: 0
      objectReference: {fileID: 0}
    - target: {fileID: -4216859302048453862, guid: dce41f0c800859c4e9a589cc20998ff9,
        type: 3}
      propertyPath: m_LocalEulerAnglesHint.x
      value: 0
      objectReference: {fileID: 0}
    - target: {fileID: -4216859302048453862, guid: dce41f0c800859c4e9a589cc20998ff9,
        type: 3}
      propertyPath: m_LocalEulerAnglesHint.y
      value: 0
      objectReference: {fileID: 0}
    - target: {fileID: -4216859302048453862, guid: dce41f0c800859c4e9a589cc20998ff9,
        type: 3}
      propertyPath: m_LocalEulerAnglesHint.z
      value: 0
      objectReference: {fileID: 0}
    m_RemovedComponents: []
  m_SourcePrefab: {fileID: 100100000, guid: dce41f0c800859c4e9a589cc20998ff9, type: 3}
--- !u!1 &308260410703809134 stripped
GameObject:
  m_CorrespondingSourceObject: {fileID: 2534866581884222612, guid: dce41f0c800859c4e9a589cc20998ff9,
    type: 3}
  m_PrefabInstance: {fileID: 2840239246963816186}
  m_PrefabAsset: {fileID: 0}
